{
    "definitions": {},
    "$schema": "http://json-schema.org/draft-07/schema#",
    "$id": "http://example.com/root.json",
    "type": "object",
    "properties": {
        "set": {
            "type": "object",
            "properties": {
                "input": {
                    "type": "object",
                    "required": [
                        "state"
                    ],
                    "properties": {
                        "state": {
                            "type": "string"
                        }
                    }
                },
                "output": {
                    "type": "object",
                    "properties": {
                        "format": {
                            "type": "string"
                        }
                    }
                }
            }
        },
        "status": {
            "type": "object",
            "properties": {
                "input": {
                    "type": "object",
                    "properties": {
                        "format": {
                            "type": "string"
                        }
                    }
                },
                "output": {
                    "required": [
                        "state"
                    ],
                    "type": "object",
                    "properties": {
                        "state": {
                            "type": "string"
                        }
                    }
                }
            }
        }
    }
}