{
    "object": "led.wps",
    "methods": [
        {
            "method": "set",
            "args": {
                "state": "ok",
                "brightness": 100
            },
            "rc": 0
        },
        {
            "method": "set",
            "args": {
                "state": "off",
                "brightness": 230
            },
            "rc": 0
        },
        {
            "method": "set",
            "args": {
                "state": "notice",
                "brightness": 60
            },
            "rc": 0
        },
        {
            "method": "set",
            "args": {
                "state": "eok",
                "brightness": 150
            },
            "rc": 0
        },
        {
            "method": "set",
            "args": {
                "state": "error",
                "brightness": 80
            },
            "rc": 0
        },
        {
            "method": "status",
            "rc": 0
        }
    ]
}